^C:\USERS\HELDER\DOWNLOADS\VERSÃO ANA\VERSÃO ANA\PROJECT1\X64\RELEASE\BASEDEDADOS.OBJ|C:\USERS\HELDER\DOWNLOADS\VERSÃO ANA\VERSÃO ANA\PROJECT1\X64\RELEASE\CODIGO.OBJ|C:\USERS\HELDER\DOWNLOADS\VERSÃO ANA\VERSÃO ANA\PROJECT1\X64\RELEASE\CONFIGURACAO.OBJ|C:\USERS\HELDER\DOWNLOADS\VERSÃO ANA\VERSÃO ANA\PROJECT1\X64\RELEASE\EQUIPA.OBJ|C:\USERS\HELDER\DOWNLOADS\VERSÃO ANA\VERSÃO ANA\PROJECT1\X64\RELEASE\MENU.OBJ|C:\USERS\HELDER\DOWNLOADS\VERSÃO ANA\VERSÃO ANA\PROJECT1\X64\RELEASE\MENU.OBJ|C:\USERS\HELDER\DOWNLOADS\VERSÃO ANA\VERSÃO ANA\PROJECT1\X64\RELEASE\PROVA.OBJ|C:\USERS\HELDER\DOWNLOADS\VERSÃO ANA\VERSÃO ANA\PROJECT1\X64\RELEASE\ROBO.OBJ|C:\USERS\HELDER\DOWNLOADS\VERSÃO ANA\VERSÃO ANA\PROJECT1\X64\RELEASE\SI.OBJ
C:\USERS\HELDER\DOWNLOADS\VERSãO ANA\VERSãO ANA\X64\RELEASE\SI.EXE
C:\USERS\HELDER\DOWNLOADS\VERSãO ANA\VERSãO ANA\X64\RELEASE\SI.IPDB
C:\USERS\HELDER\DOWNLOADS\VERSãO ANA\VERSãO ANA\X64\RELEASE\SI.IOBJ
C:\USERS\HELDER\DOWNLOADS\VERSÃO ANA\VERSÃO ANA\X64\RELEASE\SI.PDB
