^C:\USERS\HELDER\DOWNLOADS\LSIS-G1_V4\PROJECT1\BASEDEDADOS.CPP|C:\USERS\HELDER\DOWNLOADS\LSIS-G1_V4\PROJECT1\CONFIGURACAO.CPP|C:\USERS\HELDER\DOWNLOADS\LSIS-G1_V4\PROJECT1\EQUIPA.CPP|C:\USERS\HELDER\DOWNLOADS\LSIS-G1_V4\PROJECT1\MENU.CPP|C:\USERS\HELDER\DOWNLOADS\LSIS-G1_V4\PROJECT1\MENU.H|C:\USERS\HELDER\DOWNLOADS\LSIS-G1_V4\PROJECT1\PROVA.CPP|C:\USERS\HELDER\DOWNLOADS\LSIS-G1_V4\PROJECT1\ROBO.CPP|C:\USERS\HELDER\DOWNLOADS\LSIS-G1_V4\PROJECT1\SI.CPP
C:\USERS\HELDER\DOWNLOADS\LSIS-G1_V4\PROJECT1\X64\RELEASE\VC140.PDB
C:\USERS\HELDER\DOWNLOADS\LSIS-G1_V4\PROJECT1\X64\RELEASE\SI.OBJ
C:\USERS\HELDER\DOWNLOADS\LSIS-G1_V4\PROJECT1\X64\RELEASE\ROBO.OBJ
C:\USERS\HELDER\DOWNLOADS\LSIS-G1_V4\PROJECT1\X64\RELEASE\PROVA.OBJ
C:\USERS\HELDER\DOWNLOADS\LSIS-G1_V4\PROJECT1\X64\RELEASE\MENU.OBJ
C:\USERS\HELDER\DOWNLOADS\LSIS-G1_V4\PROJECT1\X64\RELEASE\EQUIPA.OBJ
C:\USERS\HELDER\DOWNLOADS\LSIS-G1_V4\PROJECT1\X64\RELEASE\CONFIGURACAO.OBJ
^C:\USERS\HELDER\DOWNLOADS\LSIS-G1_V4\PROJECT1\CONFIGURACAO.CPP
C:\USERS\HELDER\DOWNLOADS\LSIS-G1_V4\PROJECT1\X64\RELEASE\CONFIGURACAO.OBJ
^C:\USERS\HELDER\DOWNLOADS\LSIS-G1_V4\PROJECT1\EQUIPA.CPP
C:\USERS\HELDER\DOWNLOADS\LSIS-G1_V4\PROJECT1\X64\RELEASE\EQUIPA.OBJ
^C:\USERS\HELDER\DOWNLOADS\LSIS-G1_V4\PROJECT1\PROVA.CPP
C:\USERS\HELDER\DOWNLOADS\LSIS-G1_V4\PROJECT1\X64\RELEASE\PROVA.OBJ
^C:\USERS\HELDER\DOWNLOADS\LSIS-G1_V4\PROJECT1\ROBO.CPP
C:\USERS\HELDER\DOWNLOADS\LSIS-G1_V4\PROJECT1\X64\RELEASE\ROBO.OBJ
^C:\USERS\HELDER\DOWNLOADS\LSIS-G1_V4\PROJECT1\BASEDEDADOS.CPP|C:\USERS\HELDER\DOWNLOADS\LSIS-G1_V4\PROJECT1\MENU.H
C:\USERS\HELDER\DOWNLOADS\LSIS-G1_V4\PROJECT1\X64\RELEASE\VC140.PDB
C:\USERS\HELDER\DOWNLOADS\LSIS-G1_V4\PROJECT1\X64\RELEASE\MENU.OBJ
^C:\USERS\HELDER\DOWNLOADS\LSIS-G1_V4\PROJECT1\MENU.H
C:\USERS\HELDER\DOWNLOADS\LSIS-G1_V4\PROJECT1\X64\RELEASE\MENU.OBJ
^C:\USERS\HELDER\DOWNLOADS\LSIS-G1_V4\PROJECT1\BASEDEDADOS.CPP|C:\USERS\HELDER\DOWNLOADS\LSIS-G1_V4\PROJECT1\MENU.CPP
C:\USERS\HELDER\DOWNLOADS\LSIS-G1_V4\PROJECT1\X64\RELEASE\VC140.PDB
C:\USERS\HELDER\DOWNLOADS\LSIS-G1_V4\PROJECT1\X64\RELEASE\MENU.OBJ
^C:\USERS\HELDER\DOWNLOADS\LSIS-G1_V4\PROJECT1\BASEDEDADOS.CPP
C:\USERS\HELDER\DOWNLOADS\LSIS-G1_V4\PROJECT1\X64\RELEASE\VC140.PDB
C:\USERS\HELDER\DOWNLOADS\LSIS-G1_V4\PROJECT1\X64\RELEASE\BASEDEDADOS.OBJ
^C:\USERS\HELDER\DOWNLOADS\LSIS-G1_V4\PROJECT1\SI.CPP
C:\USERS\HELDER\DOWNLOADS\LSIS-G1_V4\PROJECT1\X64\RELEASE\VC140.PDB
C:\USERS\HELDER\DOWNLOADS\LSIS-G1_V4\PROJECT1\X64\RELEASE\SI.OBJ
^C:\USERS\HELDER\DOWNLOADS\LSIS-G1_V4\PROJECT1\MENU.CPP
C:\USERS\HELDER\DOWNLOADS\LSIS-G1_V4\PROJECT1\X64\RELEASE\VC140.PDB
C:\USERS\HELDER\DOWNLOADS\LSIS-G1_V4\PROJECT1\X64\RELEASE\MENU.OBJ
